{
  "name": "malevolence-reimagined-maps-by-narchy",
  "title": "Malevolence Reimagined Maps by Narchy",
  "description": "<p>My collection of maps for Paizo Publishing's Pathfinder Second Edition MALEVOLENCE adventure.</p>",
  "version": "1.0.2",
  "minimumCoreVersion": "0.8.0",
  "compatibleCoreVersion": "10",
  "author": "Narchy",
  "packs": [
    {
      "name": "malevolence-reimagined-maps-by-narchy",
      "label": "Malevolence Reimagined Maps by Narchy",
      "path": "/packs/malevolence-reimagined-maps-by-narchy.db",
      "entity": "Scene"
    }      
  
  ],
  
  "url": "https://gitlab.com/narchy-maps/malevolence-reimagined",
  "manifest": "https://gitlab.com/narchy-maps/malevolence-reimagined/-/raw/main/module.json",
  "download": "https://gitlab.com/narchy-maps/malevolence-reimagined/-/archive/main/malevolence-reimagined.zip"
}
